…
Using read_csv

Here’s the traditional strategy: use read_csv to load the data, and do the usual group_by() %>% count() work.

microbenchmark(
   read_csv("gun-violence-data_01-2013_03-2018.csv", progress = FALSE) %>% 
      group_by(state) %>%
      count(sort = TRUE) %>%
      print(),
   times = 1,
   unit = "s"
)$time/1e9

## # A tibble: 51 x 2
## # Groups:   state [51]
##    state              n
##    <chr>          <int>
##  1 Illinois       17556
##  2 California     16306
##  3 Florida        15029
##  4 Texas          13577
##  5 Ohio           10244
##  6 New York        9712
##  7 Pennsylvania    8929
##  8 Georgia         8925
##  9 North Carolina  8739
## 10 Louisiana       8103
## # … with 41 more rows
…
Here’s the same result, but loading with fread. The cool part here, brought to us by dtplyr, is that we don’t have to bring the large data table into memory to use the group_by() %>% count() verbs; we simply cast to lazy_dt() and then as_tibble() the much smaller results table for printing.

microbenchmark(
   fread("gun-violence-data_01-2013_03-2018.csv") %>% 
      lazy_dt() %>%
      group_by(state) %>%
      count(sort = TRUE) %>% 
      as_tibble() %>% 
      print(),
   times = 1, 
   unit = "s"
)$time/1e9

## # A tibble: 51 x 2
##    state              n
##    <chr>          <int>
##  1 Illinois       17556
##  2 California     16306
##  3 Florida        15029
##  4 Texas          13577
##  5 Ohio           10244
##  6 New York        9712
##  7 Pennsylvania    8929
##  8 Georgia         8925
##  9 North Carolina  8739
## 10 Louisiana       8103
## # … with 41 more rows
…
